208.67.222.222;208.67.220.220;OpenDNS Home
84.200.69.80;84.200.70.40;DNS.WATCH
209.244.0.3;209.244.0.4;Level3
74.82.42.42;74.82.42.42;Hurricane Electric
156.154.70.1;156.154.71.1;DNS Advantage
199.85.126.10;199.85.127.10;Norton ConnectSafe
8.8.8.8;8.8.4.4;Google
8.26.56.26;8.20.247.20;Comodo Secure DNS
89.233.43.71;91.239.100.100;censurfridns.dk
216.146.35.35;216.146.36.36;Dyn
37.235.1.174;37.235.1.177;FreeDNS
50.116.40.226;50.116.23.211;OpenNIC
198.101.242.72;23.253.163.53;Alternate DNS
195.46.39.39;195.46.39.40;SafeDNS
208.76.50.50;208.76.51.51;SmartViper
81.218.119.11;209.88.198.133;GreenTeamDNS
